{
  "type": "service_account",
  "project_id": "ubgo-241318",
  "private_key_id": "3bb1317bb5556a539fc2f3385eb036c9f43476a5",
  "private_key": "-----BEGIN PRIVATE KEY-----\nMIIEvQIBADANBgkqhkiG9w0BAQEFAASCBKcwggSjAgEAAoIBAQDVXGC7aJnPpCc0\nT/3xHkb2kEFT2HyO4xuX4b9Tb755IXT+5Na2bCmcZ2v4kAHtLcJU7VtYjwN5Js38\nVfIn3j7Sz2pvnqvQu6wOpBrgt2htYpLgJDVAYnynBUmP/vYmPQ98Q5sloU3vBy7u\ngEz6OHrsIlprXB236fA9nzod0uSuDMR/S5KYwT0IhMi0m+iOz9yYYM5Fu8NUH5Xc\n7JBcUaCbgWP1VJHR1XkX3UcM/iKbNJDM0Mxew2LZR6lheh5bfkQHLu7fJIrJfku/\n1sgnTQSrZu5D6Ij7mFGZj2hy94Vv8Rq24JNhKH4HrK+fhFWVE3Ya2WM/ntKJAzxi\nfuD9zVGBAgMBAAECggEAEIIAW3urO+Mq49ulDZbuvWS5ozm6oGkOsVyGa7eXfIKD\nzXVp7e0WNptTYaTNu1q5II5JTSOqjID9ur5xGRfTU0b4SJjVmRWuKSdWC4kxP5Zb\nABPZGWlNVPReJdGfnKOIi1AlRL7zW1E6VrpvSkRcsWCyj4At7fUAERp82gIfTp56\n1dRsWHozHN5wUqSIta/0/b27P5j73ZwuXFbItGaPSZJpou6dfsJwZDJwmi7jIBuX\npwidPn7CybnWrQ6h7xnP1faxblLK+WON5gZilikEQaIru2tt8u78LVjcfTBIMbpL\n7jkCRsvz3KpbuZoTapW7D4eQFHE9iVoJTNEKwyMmGQKBgQDxghWFXa2l2Ok/eeOC\n3Nv5OqdmLnpunACYLJOFocSqKZ+iy+c0WbzDGK/04+ikbDGRQHshMpYPS6VqOcZs\nEJ/StG5nVvFwewHWvqq2jUeWx5tCSmPZaVb+4lvic9EpTpQ9lT3ctPuKiJw6iOtG\nXRD158KTIdlkJt0p367UU08JOQKBgQDiKekYMp++b6DtsBWSaLTtpiyeQMGdFmCw\nQOwbo4jBp3hKIL/rz4FX+h/OkQl2IZiw+LxE6YWBn4mgbfunP9GdqxpGcOUavTpJ\nKlRyQahcZRViEeht5RHQ0KhGulD1MYNARiWgRcOW9Eo9I2GRMGqsT9xC96TOG7DL\n19WRR5ZyiQKBgQCbxXraFa0uPrVbcuPzAT+FBnb4qlvfwhGEFaRlWgz+cHB90aTk\nGElvURoVC3d/riVeecexhu5RGUqtNGyuQR7FCgn375U1JrHt7/cuXfvh3gdff5nd\nnls1dY0sh+VODlgBTKSlGbrxBOI3wx51uQt6gKz4t6l/Nq4KFzOt0bo1yQKBgHQZ\nhbJJUp3lGhzKVtiY7cBNnPwETCAC+9GfElXB5pNbEDIli8BW/pQWL7vP0qaU6ph2\np9dMdZ+sMW9s5lHePhINYuikTcgjOceTdlRNBkugDJESllnLzRB//NKKFMM6DqGx\nIOGczqIwd+fYwN5Sl4ArYuvxyuWPa3vJKbZxpHbZAoGAezTY/ulTlj8RrJ3wuCp6\n+WeP8CBlpiLinH2Y3rZsg2QSGgjP3Nme0VD6badq5yvA47V+5KvDRflfIXniVPSU\nEbWVQJqSX1QrBnsQNAYjE6nkaEd4mpTobx9Nx7iKXii0PvhsZCIP7QsrtMSPxFr2\nupTwmXfn1QSSV1AveSpEAv4=\n-----END PRIVATE KEY-----\n",
  "client_email": "firebase-adminsdk-2371t@ubgo-241318.iam.gserviceaccount.com",
  "client_id": "110503084925221260324",
  "auth_uri": "https://accounts.google.com/o/oauth2/auth",
  "token_uri": "https://oauth2.googleapis.com/token",
  "auth_provider_x509_cert_url": "https://www.googleapis.com/oauth2/v1/certs",
  "client_x509_cert_url": "https://www.googleapis.com/robot/v1/metadata/x509/firebase-adminsdk-2371t%40ubgo-241318.iam.gserviceaccount.com"
}
